R701-A508_S8_L001_R1_001
R702-A507_S15_L001_R1_001
R702-A508_S16_L001_R1_001
R703-A501_S17_L001_R1_001
R703-A502_S18_L001_R1_001
R703-A503_S19_L001_R1_001
R703-A504_S20_L001_R1_001
R703-A505_S21_L001_R1_001
R703-A506_S22_L001_R1_001
R703-A507_S23_L001_R1_001
R703-A508_S24_L001_R1_001
R704-A501_S25_L001_R1_001
R704-A502_S26_L001_R1_001
R704-A503_S27_L001_R1_001
R704-A504_S28_L001_R1_001
R704-A505_S29_L001_R1_001
R704-A506_S30_L001_R1_001
R704-A507_S31_L001_R1_001
R704-A508_S32_L001_R1_001
